…
library(nycflights13)
library(lubridate)
```

#What affects the number of daily flights?

Let’s work through a similar process for a dataset that seems even simpler at first glance: the number of flights that leave NYC per day. This is a really small dataset — only 365 rows and 2 columns — and we’re not going to end up with a fully realised model, but as you’ll see, the steps along the way will help us better understand the data. Let’s get started by counting the number of flights per day and visualising it with ggplot2.

```{r}
daily <- flights %>% 
  mutate(date = make_date(year, month, day)) %>% 
  group_by(date) %>% 
  summarise(n = n())
daily
#> # A tibble: 365 × 2
#>         date     n
#>       <date> <int>
#> 1 2013-01-01   842
#> 2 2013-01-02   943
#> 3 2013-01-03   914
#> 4 2013-01-04   915
#> 5 2013-01-05   720
#> 6 2013-01-06   832
#> # ... with 359 more rows
…
```{r}
ggplot(daily, aes(date, resid, colour = wday)) + 
  geom_ref_line(h = 0) + 
  geom_line()
```

Our model fails to accurately predict the number of flights on Saturday: during summer there are more flights than we expect, and during Fall there are fewer. We’ll see how we can do better to capture this pattern in the next section.

2. There are some days with far fewer flights than expected:

```{r}
daily %>% 
  filter(resid < -100)
#> # A tibble: 11 × 4
#>         date     n  wday resid
#>       <date> <int> <ord> <dbl>
#> 1 2013-01-01   842  Tues  -109
#> 2 2013-01-20   786   Sun  -105
#> 3 2013-05-26   729   Sun  -162
#> 4 2013-07-04   737 Thurs  -229
#> 5 2013-07-05   822   Fri  -145
#> 6 2013-09-01   718   Sun  -173
#> # ... with 5 more rows
```
…
